{
    "dumper": {
        "jet_collection": "AntiKt4EMPFlowJets",
        "calibration": {
            "file": "fragments/pflow-calibration.json"
        },
        "selection": {
            "file": "fragments/pflow-selection.json"
        },
        "vertex_collection": "PrimaryVertices",
        "dl2_configs": [
            {
                "nn_file_path": "BTagging/20220314/dipsLoose/antikt4empflow/network.json",
                "remapping": {
                    "invalidIp": ""
                }
            },
            {
                "nn_file_path": "BTagging/20220509/dl1dLoose/antikt4empflow/network.json",
                "remapping": {
                    "invalidIp": ""
                }
            }
        ],
        "variables": {
            "file": "fragments/pflow-variables.json",
            "btagging": {
                "chars": [
                    "rnnip_isDefaults"
                ],
                "floats": [
                    "rnnip_pu",
                    "rnnip_pc",
                    "rnnip_pb",
                    "DL1r_pu",
                    "DL1r_pc",
                    "DL1r_pb",
                    "dipsLoose20220314v2_pb",
                    "dipsLoose20220314v2_pc",
                    "dipsLoose20220314v2_pu",
                    "DL1dv01_pu",
                    "DL1dv01_pc",
                    "DL1dv01_pb"
                ]
            },
            "jet": {
                "floats": [
                    "GN2v01_pb",
                    "GN2v01_pc",
                    "GN2v01_pu",
                    "GN2v01_ptau"
                ]
            },
            "default_mapping": {
                "file": "fragments/default-mapping.json"
            }
        },
        "tracks": [
            {
                "n_to_save": 40,
                "selection": {
                    "file": "fragments/r22default-track-cuts.json"
                },
                "sort_order": "d0_significance",
                "input_name": "DUMMY",
                "output_name": "tracks",
                "ip_prefix": "DUMMY",
                "btagging_link": "",
                "variables": {
                    "customs": [],
                    "file": "fragments/pflow-track-variables-all.json"
                }
            }

        ],
        "truths": [
            {
                "file": "fragments/overlap-leptons-TRUTH3.json"
            }
        ],
        "decorate": {
            "jet_aug": false,
            "btag_jes": true,
            "soft_muon": false,
            "track_sv_info": true
        },
        "btagging_link": "btaggingLink"
    },
    "track_systematics": [

    ],
    "flip_configs": [
        "STANDARD"
    ],
    "jet_systematics": [
        
    ],
    "jet_sigma": 0.0,
    "track_container": "InDetTrackParticles",
    "decorate_track_truth": false,
    "ip_method": "poor",
    "add_fold_hash": false
}
