{  "mc21":false,
    "mc24":false,
    "data":false,
    "offline_jets": false,
    "do_track_matching": true,
    "emtopo_jets": true,
    "additional_chains": [],

    "dumper": {
        "jet_collection": "HLT_AntiKtVR30Rmax4Rmin02PV0TrackJets",
        "calibration": {},
        "selection": {
            "minimum_jet_constituents": 2,
            "minimum_jet_pt": 10000,
            "maximum_jet_absolute_eta": 2.5
        },
        "vertex_collection": "HLT_IDVertex_FS",
        "dl2_configs": [],
        "variables": {
            "file": "fragments/trig-vr-variables.json",
            "btagging":{
                "floats": [
                    "dips20211116_pu",
                    "dips20211116_pc",
                    "dips20211116_pb"
                ]
            },
            "jet" : {
                "floats":[
                    "pt", "eta", "phi", "m"
                ]
            },
            "default_mapping":{
                "file": "fragments/default-mapping.json"
            }
        },
        "tracks": [        
            {
                "n_to_save": 40,
                "selection": {
                "file": "fragments/ip3d-loose-track-cuts.json"
                },
                "sort_order": "d0_significance",
                "btagging_link": "btaggingLink",
                "input_name": "BTagTrackToJetAssociator",
                "output_name": "tracks_loose",
                "variables": {
                    "file": "fragments/trigger-track-halves.json"
                },
                "ip_prefix": "btagIp_"
            }
        ],
        "truths": [
            {
                "file": "fragments/overlap-leptons.json"
            }
        ],
        "decorate": {
            "jet_aug": false,
            "btag_jes": false,
            "soft_muon": false,
            "track_sv_info": false,
            "do_vrtrackjets_fix": true
        },
        "btagging_link": "btaggingLink"

    }
}
